Chapter 9 Functionals | Advanced R Companion
…
So it doesn’t seem to be a conditional, but rather a way to deal with missing errors

XXX

9.2.6.4 Exercise

In order to extract p-values the solution manual suggests using map_dbl but could we use pluck to get these values? If so how?

trials <- map(1:100, ~ t.test(rpois(10, 10), rpois(10, 7)))
tibble(p_value = map_dbl(trials, "p.value"))

## # A tibble: 100 x 1
##     p_value
##       <dbl>
##  1 0.247   
##  2 0.0173  
##  3 0.218   
##  4 0.340   
##  5 0.0154  
##  6 0.0363  
##  7 0.0276  
##  8 0.0466  
##  9 0.146   
## 10 0.000455
## # … with 90 more rows
…
