Advanced R by Hadley Wickham
…
```
## # A tibble: 176 x 8
##     repo_id repo_name     owner_name   size issues watchers  forks created_at   
##       <int> <chr>         <chr>       <int>  <int>    <int>  <int> <chr>        
##  1 14204342 datasharing   jtleek        547    399     3558 161881 2013-11-07T1~
##  2  7751816 dataanalysis  jtleek     156389      5      616    605 2013-01-22T1~
##  3 55175084 tidytext      juliasilge  12355      5      265     33 2016-03-31T1~
##  4 24905212 genomicspape~ jtleek        197      1      211     93 2014-10-07T1~
##  5 20234724 capitalIn21s~ jtleek     374812      0      186    118 2014-05-27T2~
##  6 42663787 firstpaper    jtleek         45      0      133     37 2015-09-17T1~
##  7 40200563 maxygen       gaborcsar~    140      2       59      2 2015-08-04T1~
##  8 36437287 careerplanni~ jtleek        128      0       59     18 2015-05-28T1~
##  9 24343686 crayon        gaborcsar~    752      7       52      9 2014-09-22T2~
## 10 39025267 genstats      jtleek      15870      3       42    105 2015-07-13T1~
## # ... with 166 more rows
```
